<?xml version="1.0" encoding="UTF-8" standalone="no"?>
<!-- Created with Inkscape (http://www.inkscape.org/) -->

<svg
   xmlns:dc="http://purl.org/dc/elements/1.1/"
   xmlns:cc="http://creativecommons.org/ns#"
   xmlns:rdf="http://www.w3.org/1999/02/22-rdf-syntax-ns#"
   xmlns:svg="http://www.w3.org/2000/svg"
   xmlns="http://www.w3.org/2000/svg"
   xmlns:xlink="http://www.w3.org/1999/xlink"
   xmlns:sodipodi="http://sodipodi.sourceforge.net/DTD/sodipodi-0.dtd"
   xmlns:inkscape="http://www.inkscape.org/namespaces/inkscape"
   width="744.09448819"
   height="1052.3622047"
   id="svg2"
   version="1.1"
   inkscape:version="0.47 r22583"
   sodipodi:docname="листовки.svg"
   inkscape:export-filename="/home/beetle/creativ/2012/митинг/листовки.png"
   inkscape:export-xdpi="90"
   inkscape:export-ydpi="90">
  <defs
     id="defs4">
    <inkscape:perspective
       sodipodi:type="inkscape:persp3d"
       inkscape:vp_x="0 : 526.18109 : 1"
       inkscape:vp_y="0 : 1000 : 0"
       inkscape:vp_z="744.09448 : 526.18109 : 1"
       inkscape:persp3d-origin="372.04724 : 350.78739 : 1"
       id="perspective10" />
    <inkscape:perspective
       id="perspective2902"
       inkscape:persp3d-origin="0.5 : 0.33333333 : 1"
       inkscape:vp_z="1 : 0.5 : 1"
       inkscape:vp_y="0 : 1000 : 0"
       inkscape:vp_x="0 : 0.5 : 1"
       sodipodi:type="inkscape:persp3d" />
  </defs>
  <sodipodi:namedview
     id="base"
     pagecolor="#ffffff"
     bordercolor="#666666"
     borderopacity="1.0"
     inkscape:pageopacity="0.0"
     inkscape:pageshadow="2"
     inkscape:zoom="0.66"
     inkscape:cx="428.59846"
     inkscape:cy="525.70167"
     inkscape:document-units="px"
     inkscape:current-layer="layer2"
     showgrid="false"
     inkscape:window-width="1280"
     inkscape:window-height="982"
     inkscape:window-x="0"
     inkscape:window-y="25"
     inkscape:window-maximized="1" />
  <metadata
     id="metadata7">
    <rdf:RDF>
      <cc:Work
         rdf:about="">
        <dc:format>image/svg+xml</dc:format>
        <dc:type
           rdf:resource="http://purl.org/dc/dcmitype/StillImage" />
        <dc:title></dc:title>
      </cc:Work>
    </rdf:RDF>
  </metadata>
  <g
     inkscape:groupmode="layer"
     id="layer2"
     inkscape:label="Слой">
    <rect
       style="fill:#ffffff;fill-opacity:1;fill-rule:nonzero;stroke:none"
       id="rect3804"
       width="746.96973"
       height="1056.0605"
       x="0"
       y="-0.66812038" />
  </g>
  <g
     inkscape:label="Layer 1"
     inkscape:groupmode="layer"
     id="layer1">
    <text
       xml:space="preserve"
       style="font-size:18px;font-style:normal;font-weight:bold;fill:#000000;fill-opacity:1;stroke:none;font-family:Bitstream Vera Sans;-inkscape-font-specification:Bitstream Charter Bold"
       x="87.037041"
       y="454.21402"
       id="text3706"><tspan
         sodipodi:role="line"
         id="tspan3708"
         x="87.037041"
         y="454.21402" /></text>
    <g
       id="g3743"
       transform="translate(0,24)">
      <image
         xlink:href="file:///home/beetle/creativ/2012/%D0%BC%D0%B8%D1%82%D0%B8%D0%BD%D0%B3/comp.png"
         width="737"
         height="349"
         id="image2904"
         x="3.6428571"
         y="126.43362" />
      <text
         transform="scale(1.0643781,0.93951574)"
         id="text2908"
         y="64.819321"
         x="164.59549"
         style="font-size:59.60517502px;font-style:normal;font-weight:bold;fill:#000000;fill-opacity:1;stroke:none;font-family:Bitstream Vera Sans;-inkscape-font-specification:Bitstream Charter Bold"
         xml:space="preserve"><tspan
           style="font-style:normal;font-variant:normal;font-weight:bold;font-stretch:normal;writing-mode:lr-tb;font-family:Bitstream Vera Sans Mono;-inkscape-font-specification:Bitstream Vera Sans Mono Bold"
           y="64.819321"
           x="164.59549"
           id="tspan2910"
           sodipodi:role="line">24 февраля</tspan></text>
      <rect
         y="81.630478"
         x="56.097561"
         height="46.341465"
         width="621.95123"
         id="rect2912"
         style="fill:#000000;fill-opacity:1;fill-rule:nonzero;stroke:none" />
      <text
         transform="scale(0.6825148,1.4651697)"
         xml:space="preserve"
         style="font-size:26.3730545px;font-style:normal;font-weight:bold;fill:#ffffff;fill-opacity:1;stroke:none;font-family:Bitstream Vera Sans;-inkscape-font-specification:Bitstream Charter Bold"
         x="113.71147"
         y="79.418358"
         id="text3690"><tspan
           sodipodi:role="line"
           id="tspan3692"
           x="113.71147"
           y="79.418358">11 часов    -    площадь перед зданием администрации</tspan></text>
      <text
         transform="scale(0.83845855,1.1926648)"
         id="text3694"
         y="141.48123"
         x="31.067471"
         style="font-size:26.23862648px;font-style:normal;font-variant:normal;font-weight:bold;font-stretch:normal;fill:#000000;fill-opacity:1;stroke:none;font-family:FreeMono;-inkscape-font-specification:Bitstream Vera Sans Bold"
         xml:space="preserve"><tspan
           y="141.48123"
           x="31.067471"
           id="tspan3696"
           sodipodi:role="line">Если тебе небезразлична твоя судьба и судьба города </tspan><tspan
           id="tspan3698"
           y="174.27951"
           x="31.067471"
           sodipodi:role="line">приходи на митинг в день приезда В.В. Путина в Саров </tspan></text>
      <path
         id="path3700"
         d="m 179.26829,68.654866 117.07317,0"
         style="fill:none;stroke:#000000;stroke-width:4;stroke-linecap:butt;stroke-linejoin:miter;stroke-miterlimit:4;stroke-opacity:1;stroke-dasharray:none" />
      <path
         style="fill:none;stroke:#000000;stroke-width:4;stroke-linecap:butt;stroke-linejoin:miter;stroke-miterlimit:4;stroke-opacity:1;stroke-dasharray:none"
         d="m 427.44036,68.654866 127.25224,0"
         id="path3702" />
      <path
         id="path3704"
         d="m 322.44969,68.654866 78.16908,0"
         style="fill:none;stroke:#000000;stroke-width:4;stroke-linecap:butt;stroke-linejoin:miter;stroke-miterlimit:4;stroke-opacity:1;stroke-dasharray:none" />
      <text
         id="text3710"
         y="431.10294"
         x="29.888885"
         style="font-size:18px;font-style:normal;font-weight:bold;fill:#ffffff;fill-opacity:1;stroke:none;font-family:Bitstream Vera Sans;-inkscape-font-specification:Bitstream Charter Bold"
         xml:space="preserve"><tspan
           y="431.10294"
           x="29.888885"
           id="tspan3712"
           sodipodi:role="line">дополнительная информация на сайтах:</tspan></text>
      <text
         id="text3714"
         y="411.65848"
         x="540.81451"
         style="font-size:18px;font-style:normal;font-weight:bold;fill:#ffffff;fill-opacity:1;stroke:none;font-family:Bitstream Vera Sans;-inkscape-font-specification:Bitstream Charter Bold"
         xml:space="preserve"><tspan
           y="411.65848"
           x="540.81451"
           id="tspan3716"
           sodipodi:role="line">vk.com/rc_sarov</tspan></text>
      <text
         id="text3718"
         y="453.28815"
         x="539.59259"
         style="font-size:18px;font-style:normal;font-weight:bold;fill:#ffffff;fill-opacity:1;stroke:none;font-family:Bitstream Vera Sans;-inkscape-font-specification:Bitstream Charter Bold"
         xml:space="preserve"><tspan
           y="453.28815"
           x="539.59259"
           id="tspan3720"
           sodipodi:role="line">materialy-del.ru</tspan></text>
    </g>
    <g
       id="g3763"
       transform="translate(0.4848485,520)">
      <image
         y="126.43362"
         x="3.6428571"
         id="image3765"
         height="349"
         width="737"
         xlink:href="file:///home/beetle/creativ/2012/%D0%BC%D0%B8%D1%82%D0%B8%D0%BD%D0%B3/comp.png" />
      <text
         xml:space="preserve"
         style="font-size:59.60517502px;font-style:normal;font-weight:bold;fill:#000000;fill-opacity:1;stroke:none;font-family:Bitstream Vera Sans;-inkscape-font-specification:Bitstream Charter Bold"
         x="164.59549"
         y="64.819321"
         id="text3767"
         transform="scale(1.0643781,0.93951574)"><tspan
           sodipodi:role="line"
           id="tspan3769"
           x="164.59549"
           y="64.819321"
           style="font-style:normal;font-variant:normal;font-weight:bold;font-stretch:normal;writing-mode:lr-tb;font-family:Bitstream Vera Sans Mono;-inkscape-font-specification:Bitstream Vera Sans Mono Bold">24 февраля</tspan></text>
      <rect
         style="fill:#000000;fill-opacity:1;fill-rule:nonzero;stroke:none"
         id="rect3771"
         width="621.95123"
         height="46.341465"
         x="56.097561"
         y="81.630478" />
      <text
         id="text3773"
         y="79.418358"
         x="113.71147"
         style="font-size:26.3730545px;font-style:normal;font-weight:bold;fill:#ffffff;fill-opacity:1;stroke:none;font-family:Bitstream Vera Sans;-inkscape-font-specification:Bitstream Charter Bold"
         xml:space="preserve"
         transform="scale(0.6825148,1.4651697)"><tspan
           y="79.418358"
           x="113.71147"
           id="tspan3775"
           sodipodi:role="line">11 часов    -    площадь перед зданием администрации</tspan></text>
      <text
         xml:space="preserve"
         style="font-size:26.23862648px;font-style:normal;font-variant:normal;font-weight:bold;font-stretch:normal;fill:#000000;fill-opacity:1;stroke:none;font-family:FreeMono;-inkscape-font-specification:Bitstream Vera Sans Bold"
         x="31.067471"
         y="141.48123"
         id="text3777"
         transform="scale(0.83845855,1.1926648)"><tspan
           sodipodi:role="line"
           id="tspan3779"
           x="31.067471"
           y="141.48123">Если тебе небезразлична твоя судьба и судьба города </tspan><tspan
           sodipodi:role="line"
           x="31.067471"
           y="174.27951"
           id="tspan3781">приходи на митинг в день приезда В.В. Путина в Саров </tspan></text>
      <path
         style="fill:none;stroke:#000000;stroke-width:4;stroke-linecap:butt;stroke-linejoin:miter;stroke-miterlimit:4;stroke-opacity:1;stroke-dasharray:none"
         d="m 179.26829,68.654866 117.07317,0"
         id="path3783" />
      <path
         id="path3785"
         d="m 427.44036,68.654866 127.25224,0"
         style="fill:none;stroke:#000000;stroke-width:4;stroke-linecap:butt;stroke-linejoin:miter;stroke-miterlimit:4;stroke-opacity:1;stroke-dasharray:none" />
      <path
         style="fill:none;stroke:#000000;stroke-width:4;stroke-linecap:butt;stroke-linejoin:miter;stroke-miterlimit:4;stroke-opacity:1;stroke-dasharray:none"
         d="m 322.44969,68.654866 78.16908,0"
         id="path3787" />
      <text
         xml:space="preserve"
         style="font-size:18px;font-style:normal;font-weight:bold;fill:#ffffff;fill-opacity:1;stroke:none;font-family:Bitstream Vera Sans;-inkscape-font-specification:Bitstream Charter Bold"
         x="29.888885"
         y="431.10294"
         id="text3789"><tspan
           sodipodi:role="line"
           id="tspan3791"
           x="29.888885"
           y="431.10294">дополнительная информация на сайтах:</tspan></text>
      <text
         xml:space="preserve"
         style="font-size:18px;font-style:normal;font-weight:bold;fill:#ffffff;fill-opacity:1;stroke:none;font-family:Bitstream Vera Sans;-inkscape-font-specification:Bitstream Charter Bold"
         x="540.81451"
         y="411.65848"
         id="text3793"><tspan
           sodipodi:role="line"
           id="tspan3795"
           x="540.81451"
           y="411.65848">vk.com/rc_sarov</tspan></text>
      <text
         xml:space="preserve"
         style="font-size:18px;font-style:normal;font-weight:bold;fill:#ffffff;fill-opacity:1;stroke:none;font-family:Bitstream Vera Sans;-inkscape-font-specification:Bitstream Charter Bold"
         x="539.59259"
         y="453.28815"
         id="text3797"><tspan
           sodipodi:role="line"
           id="tspan3799"
           x="539.59259"
           y="453.28815">materialy-del.ru</tspan></text>
    </g>
  </g>
</svg>
